module bitbucket.org/vbus/nats-server/v2

require (
	github.com/nats-io/jwt v0.2.14
	github.com/nats-io/nats.go v1.8.1
	github.com/nats-io/nkeys v0.1.0
	github.com/nats-io/nuid v1.0.1
	golang.org/x/crypto v0.0.0-20190701094942-4def268fd1a4
	golang.org/x/sys v0.0.0-20190726091711-fc99dfbffb4e
)
